<?xml version="1.0" encoding="UTF-8"?>
<svg width="255px" height="76px" viewBox="0 0 255 76" version="1.1" xmlns="http://www.w3.org/2000/svg" xmlns:xlink="http://www.w3.org/1999/xlink">
    <!-- Generator: Sketch 60 (88103) - https://sketch.com -->
    <title>Group 3</title>
    <desc>Created with Sketch.</desc>
    <g id="Page-1" stroke="none" stroke-width="1" fill="none" fill-rule="evenodd">
        <g id="Artboard" transform="translate(-300.000000, -344.000000)">
            <g id="Group-3" transform="translate(300.000000, 344.000000)">
                <g id="Group-2">
                    <path d="M28.3504708,75.103385 L25.8028208,58.908535 C28.9482708,58.413635 31.7055708,56.815885 33.5630208,54.410335 C35.3144208,52.144435 36.0455708,49.420385 35.6231208,46.738685 C35.2006708,44.056985 33.6669708,41.688535 31.3058708,40.070835 C28.7956708,38.351985 25.7408708,37.665985 22.5985708,38.164735 L19.9273708,21.990185 C27.2294208,20.846385 34.5962208,22.452885 40.5710708,26.546835 C46.6915208,30.740535 50.6853708,37.005535 51.8162208,44.188585 C52.9488208,51.370935 51.0738708,58.560635 46.5371708,64.433285 C42.1079208,70.164885 35.6493708,73.954685 28.3504708,75.103385" id="Fill-32" fill="#5F0092"></path>
                    <path d="M19.3212408,38.44225 C15.3616908,38.44225 11.5057408,37.2267 8.20244084,34.89745 C3.97794084,31.9165 1.16534084,27.4687 0.284740838,22.3734 C-1.53350916,11.85415 5.54734084,1.8172 16.0665908,7.10542736e-14 L18.8581908,16.15425 C17.2464408,16.43285 16.1610908,17.97075 16.4389908,19.5818 C16.6206408,20.63565 17.2772408,21.23695 17.6524408,21.50085 C18.0262408,21.76615 18.8728908,22.1753 19.9270908,21.99015 L22.5986408,38.1647 C21.4838908,38.3572 20.4293408,38.44225 19.3212408,38.44225" id="Fill-34" fill="#00DFEF"></path>
                </g>
                <path d="M74.0241116,31 C76.4916489,31 79.6762215,31.4832889 81.5067046,32.1270849 L80.5518218,39.1780831 C78.6011925,38.5731764 76.0945378,38.1704946 74.7404483,38.1704946 C73.1485113,38.1704946 72.5128541,38.7347441 72.5128541,39.5005114 C72.5128541,40.9507317 74.9803914,41.4739706 77.4077636,42.8036339 C80.0750789,44.2545613 82.5412192,46.5508024 82.5412192,50.6196922 C82.5412192,55.4543492 79.0391673,59 71.7556537,59 C69.0495703,59 65.7060834,58.5167111 63,57.5087691 L63.9548828,50.4588316 C66.1440582,51.2242453 69.5277102,51.8284448 71.3973107,51.8284448 C72.7510509,51.8284448 73.3884544,51.4653594 73.3884544,50.6603492 C73.3884544,49.0892183 70.6009929,48.6458794 68.0150557,47.1546484 C65.4270229,45.6644781 63.358343,43.5694011 63.358343,39.7419791 C63.358343,34.4643367 67.2983697,31 74.0241116,31 Z M102.906348,31.3506054 L113.468386,58.6619099 L104.753945,58.6619099 L102.931495,53.9163449 L94.7727301,53.9163449 L92.8381669,58.6619099 L84.1614464,58.6619099 L94.9470119,31.3506054 L102.906348,31.3506054 Z M118.453684,31.3504287 L124.752628,46.9867877 L131.087196,31.3504287 L139.950422,31.3504287 L127.97492,58.6617331 L121.379803,58.6617331 L109.590458,31.3504287 L118.453684,31.3504287 Z M161,31.3798432 L161,37.855632 L150.375794,37.855632 L150.375794,41.7986616 L158.47239,41.7986616 L158.47239,46.8539274 L150.375794,46.8539274 L150.375794,52.1983889 L161,52.1983889 L161,58.6363489 L142.974229,58.6363489 L142.974229,31.3798432 L161,31.3798432 Z M98.9258067,39.791015 L98.8514139,39.791015 L95.8386783,48.4842056 L101.901171,48.4842056 L98.9258067,39.791015 Z" id="Combined-Shape" fill="#5F0092"></path>
                <path d="M178.136392,31.0000707 C180.579136,31.0000707 182.941743,31.5639653 184.824588,32.4096304 L183.943444,35.3507207 C182.380439,34.6256124 180.298308,34.1016677 178.335678,34.1016677 C173.048808,34.1016677 170.044761,37.8891302 170.044761,44.9394034 C170.044761,51.8284629 172.848468,55.8980495 178.376449,55.8980495 C180.419215,55.8980495 182.781822,55.3733977 184.062593,54.8095031 L184.744804,57.8312003 C183.302355,58.395802 180.65892,59 178.05485,59 C170.364954,59 166,53.4805503 166,44.9793533 C166,36.1970929 170.606416,31.0000707 178.136392,31.0000707 Z M221.075919,31 C223.559082,31 226.481587,31.6038445 228.325419,32.3696098 L227.764115,35.5921171 C226.24153,34.8673623 223.35839,34.142254 221.235839,34.142254 C218.031101,34.142254 216.189026,35.7536844 216.189026,38.1305266 C216.189026,41.1119203 219.233493,42.3203164 222.317676,43.7712401 C225.720997,45.382317 229.126428,47.276225 229.126428,51.667532 C229.126428,55.9782321 225.76212,58.9999293 219.834162,58.9999293 C216.949264,58.9999293 213.98634,58.2741139 211.74253,57.2272851 L212.303834,54.1253346 C214.305829,55.0516066 217.350647,55.8576753 219.873175,55.8576753 C223.118685,55.8576753 225.200816,54.3668017 225.200816,51.7481389 C225.200816,48.7667451 222.155998,47.5176921 219.151951,46.0674754 C215.748278,44.456045 212.303834,42.7233507 212.303834,38.3723472 C212.303834,33.9407368 215.707507,31 221.075919,31 Z M200.606433,31.4027869 L209.737372,58.597001 L205.772044,58.597001 L203.569357,51.9087516 L192.354881,51.9087516 L190.152194,58.597001 L186.308124,58.597001 L195.399699,31.4027869 L200.606433,31.4027869 Z M237.61786,31.402893 L237.61786,43.5695815 L251.194944,43.5695815 L251.194944,31.402893 L255,31.402893 L255,58.597107 L251.194944,58.597107 L251.194944,46.6312286 L237.61786,46.6312286 L237.61786,58.597107 L233.772033,58.597107 L233.772033,31.402893 L237.61786,31.402893 Z M198.002363,34.5849908 L197.922227,34.5849908 L193.236026,49.1292286 L202.688564,49.1292286 L198.002363,34.5849908 Z" id="Combined-Shape" fill="#5F0092"></path>
            </g>
        </g>
    </g>
</svg>