<?xml version="1.0" encoding="UTF-8"?>
<!DOCTYPE svg PUBLIC "-//W3C//DTD SVG 1.1//EN" "http://www.w3.org/Graphics/SVG/1.1/DTD/svg11.dtd">
<!-- Creator: CorelDRAW (Sem fins comerciais) -->
<svg xmlns="http://www.w3.org/2000/svg" xml:space="preserve" width="179px" height="35px" version="1.1" style="shape-rendering:geometricPrecision; text-rendering:geometricPrecision; image-rendering:optimizeQuality; fill-rule:evenodd; clip-rule:evenodd"
viewBox="0 0 118.21 23.17"
 xmlns:xlink="http://www.w3.org/1999/xlink">
 <defs>
  <style type="text/css">
   <![CDATA[
    .fil1 {fill:#95A5A6}
    .fil0 {fill:#95A5A6;fill-rule:nonzero}
   ]]>
  </style>
 </defs>
 <g id="Camada_x0020_1">
  <metadata id="CorelCorpID_0Corel-Layer"/>
  <g id="_105553438524192">
   <g>
    <g>
     <path class="fil0" d="M104.34 1.92c14.42,2.17 10.41,20.83 -2.22,19.24 -10.08,-1.28 -10.25,-18.53 2.22,-19.24zm4.8 13.55c6.29,-11.91 -13.75,-13.55 -11,-2.52 1.3,5.22 6.68,7.44 11,2.52zm-34.7 -3.66c-2.44,2.21 -4.72,10.08 -4.33,0.78 1.81,-18.86 12.09,7.69 18.76,-6.5 3.24,-6.9 1.04,8.54 -0.41,10.64 -3.11,4.48 -6.82,-5.89 -14.02,-4.92zm-10.35 7.76c-1.85,2.98 -1.6,-20.6 0.55,-14.75 1.09,2.94 0.51,8.67 0.08,12.33 -0.1,0.83 -0.17,1.69 -0.63,2.42zm-15.16 -5.17c2.15,-4.6 5.58,-8.05 1.93,-12.4 -0.34,-0.39 -0.92,-0.85 -0.74,-1.45 0.31,-1.08 3.72,-0.4 6.04,0.57 2.3,0.95 3.09,1.93 1.96,4.47 -2.39,5.35 -12.92,11.76 -1.74,16.11 5.5,2.13 -5.54,2.01 -7.8,-0.82 -0.41,-0.5 -0.63,-0.98 -0.74,-1.45 -0.36,-1.62 0.4,-3.57 1.09,-5.03zm-23.88 -2.42c-0.01,-10.8 15.47,-13.25 18.85,-2.61 4.05,12.78 -18.84,17.16 -18.85,2.61zm13.23 -5.61c-4.22,-2.49 -10.04,-0.41 -10.23,5.49 -0.52,15.91 22.33,1.64 10.23,-5.49zm-37.91 10.97c-0.16,-1.45 -0.81,-9.01 0.11,-12.73 0.76,-3.06 2.43,-3.02 4.35,-0.69 2.17,2.63 1.31,3.57 8.88,1.43 6.44,-1.83 7.05,5 6.84,10.6 -0.17,4.81 -3.36,-2.96 -5.9,-5.97 -1.53,-1.82 -1.63,-1.04 -3.08,-0.19 -3.23,1.91 -5.98,0.23 -7.14,-2.98 -2.42,-6.7 -2.53,25.05 -4.06,10.53z"/>
    </g>
    <g>
     <path class="fil1" d="M115.39 0.65c-1.63,0.33 -0.58,3.02 -0.38,3.3 0.56,0.79 1.25,1.2 2.24,0.93 0.6,-0.16 1.14,-1.69 0.91,-2.98 -0.1,-0.51 -0.01,-0.04 -0.01,-0.06 -0.34,-1.15 -1.5,-1.45 -2.76,-1.19z"/>
    </g>
   </g>
  </g>
 </g>
</svg>
